// Jest Snapshot v1, https://goo.gl/fbAQLP

exports[`AccordionMenu Default smoke-test 1`] = `
<div style="width: 255px; margin: 24px; border: 1px solid lightgrey; border-radius: 6px;">
  <p style="list-style-type: none; margin: 0px; padding: 6px;">
    Use controls to open accordion menu
  </p>
  <ul class="rck-accordionMenu rck-accordionMenu--is-visible">
    <ul style="margin: 0px; padding: 0px;">
      <li style="border-top: 1px solid lightgrey; list-style-type: none; margin: 0px; padding: 6px;">
        Menu option 1
      </li>
      <li style="border-top: 1px solid lightgrey; list-style-type: none; margin: 0px; padding: 6px;">
        Menu option 2
      </li>
      <li style="border-top: 1px solid lightgrey; list-style-type: none; margin: 0px; padding: 6px;">
        Menu option 3
      </li>
      <li style="border-top: 1px solid lightgrey; list-style-type: none; margin: 0px; padding: 6px;">
        Menu option 4
      </li>
    </ul>
  </ul>
</div>
`;
