// Jest Snapshot v1, https://goo.gl/fbAQLP

exports[`DurationInput Default smoke-test 1`] = `
<div style="display: flex; align-items: center; justify-content: center; flex-direction: column;">
  <div style="display: flex; align-items: center; justify-content: center; height: 300px;">
    <div class="rck-layout rck-flex-layout rck-flex-layout--main-axis-row rck-flex-layout--main-axis-alignment-center rck-flex-layout--cross-axis-alignment-center rck-flex-layout--flex rck-duration-input">
      <div data-rck-input-base--container="true"
           role="presentation"
           class="rck-text-field-base rck-text-field-base--size-small rck-text-field-base--width-hug-content  "
      >
        <div data-area--body-wrapper="true"
             class="rck-text-field-base__body-wrapper"
        >
          <input data-rck-input-base--input="true"
                 name="duration-hours"
                 min="0"
                 max="24"
                 type="number"
                 class="rck-text-field-base__input"
                 value="05"
          >
        </div>
        <div data-area--right="true">
          <span class="rck-duration-input__text">
            h
          </span>
        </div>
      </div>
      <div data-rck-input-base--container="true"
           role="presentation"
           class="rck-text-field-base rck-text-field-base--size-small rck-text-field-base--width-hug-content  "
      >
        <div data-area--body-wrapper="true"
             class="rck-text-field-base__body-wrapper"
        >
          <input data-rck-input-base--input="true"
                 name="duration-minutes"
                 min="0"
                 max="59"
                 type="number"
                 class="rck-text-field-base__input"
                 value="00"
          >
        </div>
        <div data-area--right="true">
          <span class="rck-duration-input__text">
            m
          </span>
        </div>
      </div>
    </div>
  </div>
  <div>
    <small style="color: rgb(153, 153, 153);">
      When
      <b>
        maxMinutes
      </b>
      prop is not present it's default value is 1440 (24h * 60)
    </small>
  </div>
</div>
`;
