// Jest Snapshot v1, https://goo.gl/fbAQLP

exports[`ExpandableBase Default smoke-test 1`] = `
<div class="rck-expandable ">
  <div class="rck-expandable__header"
       role="button"
       tabindex="0"
       aria-expanded="false"
       aria-disabled="false"
  >
    <span class="rck-expandable__header--left-content">
      <div class="rck-text rck-text--type-body-2-regular">
        expandable title
      </div>
    </span>
    <span class="rck-expandable__header--right-content">
      <span class="rck-text rck-text--type-caption-1-regular">
        999
      </span>
    </span>
    <span class="rck-expandable__header--open-icon">
      <div class="rck-icon rck-icon--secondary rck-opener rck-opener--animation rck-opener--animation-rotate"
           aria-hidden="true"
      >
        <i class="fa-regular fa-angle-up regular">
        </i>
      </div>
    </span>
  </div>
  <div class="rck-expandable__container false">
    <div>
      <div class="rck-text rck-text--type-body-2-regular">
        content
      </div>
    </div>
    <div>
      <div class="rck-text rck-text--type-body-2-regular">
        content
      </div>
    </div>
  </div>
</div>
`;
