// Jest Snapshot v1, https://goo.gl/fbAQLP

exports[`Modal ModalSandbox smoke-test 1`] = `
<div id="styleguide-react-portal-modal">
  <div>
    <div>
      <div class="rck-portal-modal__overlay ">
        <div class="rck-portal-modal__wrapper  rck-modal--small "
             role="dialog"
             style="width: 320px; height: 472px;"
        >
          <div class="rck-layout rck-flex-layout rck-flex-layout--main-axis-row rck-flex-layout--flex">
            <span class="rck-portal-modal__back-btn rck-portal-modal__back-btn--hide">
              <div class="rck-icon rck-icon--not-set rck-modal__close-btn--negative"
                   aria-hidden="true"
                   aria-label="back"
              >
                <i class="fa-regular fa-arrow-left regular">
                </i>
              </div>
            </span>
            <span class="rck-portal-modal__close-btn">
              <div class="rck-icon rck-icon--not-set rck-modal__close-btn--negative"
                   aria-hidden="true"
                   aria-label="close"
              >
                <i class="fa-regular fa-times regular">
                </i>
              </div>
            </span>
          </div>
          <div class="rck-modal rck-modal--primary">
            <div class="rck-modal__body">
              <h1 class="rck-text rck-text--type-title-2-semibold rck-modal__title">
                Modify modal title
              </h1>
              <div class="rck-modal__content-scrollable">
                <p class="rck-text rck-text--type-body-1-regular rck-modal__text rck-modal__text--center rck-modal__text--mbottom-16">
                  Modify modal text
                </p>
              </div>
            </div>
          </div>
        </div>
      </div>
    </div>
  </div>
</div>
`;

exports[`Modal ModalSimple smoke-test 1`] = `
<div id="styleguide-react-portal-modal">
  <div>
    <div>
      <div class="rck-portal-modal__overlay ">
        <div class="rck-portal-modal__wrapper  rck-modal--small "
             role="dialog"
             style="width: 320px; height: 200px;"
        >
          <div class="rck-layout rck-flex-layout rck-flex-layout--main-axis-row rck-flex-layout--flex">
            <span class="rck-portal-modal__back-btn rck-portal-modal__back-btn--hide">
              <div class="rck-icon rck-icon--not-set rck-modal__close-btn--negative"
                   aria-hidden="true"
                   aria-label="back"
              >
                <i class="fa-regular fa-arrow-left regular">
                </i>
              </div>
            </span>
            <span class="rck-portal-modal__close-btn">
              <div class="rck-icon rck-icon--not-set rck-modal__close-btn--negative"
                   aria-hidden="true"
                   aria-label="close"
              >
                <i class="fa-regular fa-times regular">
                </i>
              </div>
            </span>
          </div>
          <div class="rck-modal rck-modal--primary">
            <div class="rck-modal__body">
              <h1 class="rck-text rck-text--type-title-2-semibold rck-modal__title">
                Modal title
              </h1>
              <div class="rck-modal__content-scrollable">
                <p class="rck-text rck-text--type-body-1-regular rck-modal__text rck-modal__text--center rck-modal__text--mbottom-16">
                  Modal Simple without animation
                  <a href="#">
                    This is a link
                  </a>
                </p>
              </div>
            </div>
          </div>
        </div>
      </div>
    </div>
  </div>
</div>
`;

exports[`Modal ModalWithAnimation smoke-test 1`] = `
<div id="styleguide-react-portal-modal">
  <div>
    <div>
      <div class="rck-portal-modal__overlay ">
        <div class="rck-portal-modal__wrapper rck-portal-modal__wrapper--animated rck-modal--small "
             role="dialog"
             style="width: 320px; height: 200px;"
        >
          <div class="rck-layout rck-flex-layout rck-flex-layout--main-axis-row rck-flex-layout--flex">
            <span class="rck-portal-modal__back-btn rck-portal-modal__back-btn--hide">
              <div class="rck-icon rck-icon--not-set rck-modal__close-btn--negative"
                   aria-hidden="true"
                   aria-label="back"
              >
                <i class="fa-regular fa-arrow-left regular">
                </i>
              </div>
            </span>
            <span class="rck-portal-modal__close-btn">
              <div class="rck-icon rck-icon--not-set rck-modal__close-btn--negative"
                   aria-hidden="true"
                   aria-label="close"
              >
                <i class="fa-regular fa-times regular">
                </i>
              </div>
            </span>
          </div>
          <div class="rck-modal rck-modal--primary">
            <div class="rck-modal__body">
              <h1 class="rck-text rck-text--type-title-2-semibold rck-modal__title">
                Modal title
              </h1>
              <div class="rck-modal__content-scrollable">
                <p class="rck-text rck-text--type-body-1-regular rck-modal__text rck-modal__text--center rck-modal__text--mbottom-16">
                  Modal Simple with animation
                </p>
              </div>
            </div>
          </div>
        </div>
      </div>
    </div>
  </div>
</div>
`;
