// Jest Snapshot v1, https://goo.gl/fbAQLP

exports[`Slider Default smoke-test 1`] = `
<div style="margin: 16px;">
  <div style="height: 100px; display: flex; align-items: center; margin: 0px 0px 0px 20px;">
    <div class="rck-slider">
      <label for="slider">
        100 m
      </label>
      <input id="slider"
             class="rck-slider"
             name="slider"
             type="range"
             min="100"
             max="200"
             value="100"
      >
    </div>
  </div>
</div>
`;
