// Jest Snapshot v1, https://goo.gl/fbAQLP

exports[`TimePickerInput TimePickerInputStory smoke-test 1`] = `
<div style="width: 300px; padding: 32px;">
  <div data-rck-input-base--container="true"
       role="presentation"
       class="rck-text-field-base rck-text-field-base--size-small rck-text-field-base--width-block   rck-time-picker-input"
       data-testid="TextFieldBase__TimePickerInput__custom-test-id"
  >
    <div data-area--body-wrapper="true"
         class="rck-text-field-base__body-wrapper"
    >
      <input data-rck-input-base--input="true"
             placeholder="HH:mm"
             type="text"
             class="rck-text-field-base__input"
             data-testid="TextFieldBase__TimePickerInput__custom-test-id--Input"
             value
      >
    </div>
    <div data-area--right="true"
         data-testid="TextFieldBase__TimePickerInput__custom-test-id--ContentRight"
    >
      <div class="rck-icon rck-icon--secondary rck-icon--square rck-icon--square-lg"
           aria-hidden="true"
      >
        <i class="fa-regular fa-clock fa-lg">
        </i>
      </div>
    </div>
  </div>
</div>
`;

exports[`TimePickerInput WithDropdown smoke-test 1`] = `
<div style="width: 300px; padding: 32px;">
  <div id="test">
    <div>
    </div>
  </div>
  <div class="rck-dropdown">
    <div class="rck-dropdown__action-name-container">
      <div data-rck-input-base--container="true"
           role="presentation"
           class="rck-text-field-base rck-text-field-base--size-small rck-text-field-base--width-block   rck-time-picker-input"
      >
        <div data-area--body-wrapper="true"
             class="rck-text-field-base__body-wrapper"
        >
          <input data-rck-input-base--input="true"
                 placeholder="HH:mm"
                 type="text"
                 class="rck-text-field-base__input"
                 value="Option 10"
          >
        </div>
        <div data-area--right="true">
          <div class="rck-icon rck-icon--secondary rck-icon--square rck-icon--square-lg"
               aria-hidden="true"
          >
            <i class="fa-regular fa-clock fa-lg">
            </i>
          </div>
        </div>
      </div>
    </div>
  </div>
</div>
`;
